…
Observations are the level of items in orders by user. There are user /
order variables – user ID, order ID, order day, and order hour. There
are also item variables – name, aisle, department, and some numeric
codes.

How many aisles, and which are most items from?

``` r
instacart %>% 
    count(aisle) %>% 
    arrange(desc(n))
```

    ## # A tibble: 134 x 2
    ##    aisle                              n
    ##    <chr>                          <int>
    ##  1 fresh vegetables              150609
    ##  2 fresh fruits                  150473
    ##  3 packaged vegetables fruits     78493
    ##  4 yogurt                         55240
    ##  5 packaged cheese                41699
    ##  6 water seltzer sparkling water  36617
    ##  7 milk                           32644
    ##  8 chips pretzels                 31269
    ##  9 soy lactosefree                26240
    ## 10 bread                          23635
    ## # ... with 124 more rows
…
    ## See spec(...) for full column specifications.

``` r
accel_df =
          accel_df %>%
            mutate(
                  day_id = cumsum(!duplicated(accel_df[1:2]))
  )

accel_df
```

    ## # A tibble: 50,400 x 6
    ##     week day_id day    minute activity_count wkday_wkend
    ##    <dbl>  <int> <fct>   <dbl>          <dbl> <fct>      
    ##  1     1      1 Sunday      1              1 weekend    
    ##  2     1      1 Sunday      2              1 weekend    
    ##  3     1      1 Sunday      3              1 weekend    
    ##  4     1      1 Sunday      4              1 weekend    
    ##  5     1      1 Sunday      5              1 weekend    
    ##  6     1      1 Sunday      6              1 weekend    
    ##  7     1      1 Sunday      7              1 weekend    
    ##  8     1      1 Sunday      8              1 weekend    
    ##  9     1      1 Sunday      9              1 weekend    
    ## 10     1      1 Sunday     10              1 weekend    
    ## # ... with 50,390 more rows
…
